{
	"templars_internal":{
		"name":"Knights Templar Informare",
		"logo":"graphics/templars/icons/intel/tem_intelligence.png",
		"icon":"graphics/templars/icons/intel/tem_intelligence.png",
		"image":"graphics/templars/factions/knights_templar.png",
		"sound":"ui_channel_comm_secure",
		"faction":"templars",
		"type":"Intelligence Report",
		"shortType":"Intel"
	}
}