name,id,designation,tech/manufacturer,system id,fleet pts,hitpoints,armor rating,max flux,8/6/5/4%,flux dissipation,ordnance points,fighter bays,max speed,acceleration,deceleration,max turn rate,turn acceleration,mass,shield type,defense id,shield arc,shield upkeep,shield efficiency,phase cost,phase upkeep,min crew,max crew,cargo,fuel,fuel/ly,range,max burn,base value,cr %/day,CR to deploy,peak CR sec,CR loss/sec,supplies/rec,supplies/mo,hints,tags,rarity,breakProb,minPieces,maxPieces,number
Teuton,tem_teuton,,Knights Templar,,,1000,100,800,,35,0,,150,250,200,75,150,60,PHASE,tem_almaceburst,,,,0,0,4,4,,,,,,,,,,,,,,,,0,,,1337
,,,,,,,,,,,,,,,,,,,,,,,,,,,,,,,,,,,,,,,,,,,,,,
Jesuit,tem_jesuit,Elucidator,Knights Templar,tem_schismdrive,13,2500,400,5000,2500,200,70,,90,80,120,60,120,300,PHASE,tem_priwenburstshield,,,,0,0,25,40,40,30,1,30,9,115000,4,8,300,0.25,15,15,,"tem_templar_bp, no_drop, no_bp_drop",,0,2,2,1337.01
Martyr,tem_martyr,Illuminator,Knights Templar,tem_riastrad,8,1500,350,3750,1875,150,45,,150,450,600,90,180,150,PHASE,tem_almaceburst,,,,0,0,10,20,25,20,1,20,10,90000,4,8,180,0.25,12,12,,"tem_templar_bp, no_drop, no_bp_drop",,0,3,4,1337.02
Crusader,tem_crusader,Bulwark,Knights Templar,tem_aegisshield,22,6000,1000,10000,5833,350,120,,70,40,20,30,50,800,PHASE,tem_priwenburstshield,,,,0,0,60,150,100,100,3,33,8,230000,3,8,600,0.25,25,25,,"tem_templar_bp, no_drop, no_bp_drop",,0,2,3,1337.03
Paladin,tem_paladin,Retributor,Knights Templar,tem_holycharge,35,10000,1400,21000,14000,700,245,,35,15,10,10,12,3000,PHASE,tem_priwenburstshield,,,,0,0,300,600,200,175,5,35,7,630000,3,10,720,0.25,50,50,,"tem_templar_bp, no_drop, no_bp_drop",,0,2,3,1337.04
Chevalier,tem_chevalier,Avenger,Knights Templar,tem_divinereach,30,9000,1200,17000,12000,600,165,,60,25,15,20,30,2200,PHASE,tem_priwenburstshield,,,,0,0,200,400,120,150,5,30,7,605000,2,10,600,0.25,42,42,,"tem_templar_bp, no_drop, no_bp_drop",,0,2,3,1337.05
Archbishop,tem_archbishop,Nullifier,Knights Templar,tem_interdictor_drones,45,17000,1200,20000,16250,650,400,4,50,10,10,7,3,4500,PHASE,tem_priwenburstshield,,,,0,0,600,1100,400,450,15,30,6,1050000,2,10,900,0.25,65,65,"CARRIER, COMBAT, NO_AUTO_ESCORT","tem_templar_bp, no_drop, no_bp_drop",,0,2,4,1337.06
,,,,,,,,,,,,,,,,,,,,,,,,,,,,,,,,,,,,,,,,,,,,,,
Interdictor,tem_drone_interdictor,,,,,500,150,1000,,100,,,125,400,400,150,300,10,NONE,,,,,,,,,,,,,,,,,,,,,,,,0,,,1337.07
,,,,,,,,,,,,,,,,,,,,,,,,,,,,,,,,,,,,,,,,,,,,,,
Cleric,tem_boss_paladin,Mod-Retributor,Knights Templar,tem_heavyschismdrive,45,15000,1750,27000,18000,900,265,,40,20,15,12,15,3500,PHASE,tem_priwenburstshield,,,,0,0,400,600,300,250,5,50,8,755000,2,10,720,0.25,60,90,HIDE_IN_CODEX,"no_autofit, no_drop, no_bp_drop",,0,2,3,1337.08
Pope,tem_boss_archbishop,Mod-Nullifier,Knights Templar,tem_warpspasm,60,15000,2000,31250,25000,1000,400,2,50,20,20,8,4,6000,PHASE,tem_priwenburstshield,,,,0,0,700,800,500,750,15,50,7,1300000,2,10,900,0.25,80,120,HIDE_IN_CODEX,"no_autofit, no_drop, no_bp_drop",,0,2,3,1337.09
