id,variant,tags,tier,rarity,fleet pts,op cost,formation,range,attackRunRange,attackPositionOffset,num,role,role desc,refit,base value,,,,,,,,number
tem_teuton_fighter_wing,tem_teuton_Fighter,"fighter6, fighter, no_bp_drop, tem_templar_bp, templar",3,0.001,6,18,V,2000,750,,1,FIGHTER,Heavy Fighter,30,28000,,,,,,,,1337
tem_teuton_assault_wing,tem_teuton_Assault,"fighter6, fighter, no_bp_drop, tem_templar_bp, templar",3,0.001,10,32,V,2000,750,-300,2,FIGHTER,Assault Fighter,30,48000,,,,,,,,1337.1
tem_teuton_support_wing,tem_teuton_Support,"fighter6, fighter, no_bp_drop, tem_templar_bp, templar",3,0.001,12,48,V,2000,750,500,4,FIGHTER,Support Fighter,30,58000,,,,,,,,1337.2
tem_teuton_bomber_wing,tem_teuton_Bomber,"bomber6, bomber, no_bp_drop, tem_templar_bp, templar",3,0.001,12,42,V,2000,1000,400,3,BOMBER,Heavy Bomber,30,44000,,,,,,,,1337.3
