{
    "TEMPLARS":{
        "hyperspaceJitterColor":[200,240,255,200],
        "baseCampaignExplosionColor":[255,100,100,255],
        "baseCombatExplosionColor":[255,100,100,255],
        "fighterRepairFlickerColor":[50,175,255,255],
        "fighterChipIconColor":[125,225,255,255],
        "weaponDisabledExplosionColor":[255,100,100,255],
        "shieldRingColor":[255,255,255,255],
        "shieldInnerColor":[100,200,255,100],
        "fluxVentCoreColor":[50,90,110,255],
        "fluxVentFringeColor":[175,40,40,255],
        "engineLoopSet":"tem_engine_loop",
        "engineAccelerateSet":"tem_engine_accelerate",
        "empLoopSet":"tem_emp_loop",
        "fluxLoopSet":"tem_flux_loop",
        "ventFluxSet":"tem_vent_flux",
        "shieldBurnoutSet":"tem_shield_burnout",
        "shieldLowerSet":"tem_shield_lower",
        "shieldRaiseSet":"tem_shield_raise",
        "explosionShipSet":"tem_explosion_ship",
        "damageDecalSheet":"graphics/damage/damage_decal_sheet_base.png",
        "damageDecalGlowSheet":"graphics/damage/damage_decal_sheet_glow.png",

        "colorShiftCovers":true,
        "coversColorShiftAmount":1,
        "coversMatchShipBrightness":true,
        "slotCoverSmallTurret":"graphics/weapons/covers/cover_turret_hightech_small.png",
        "slotCoverSmallHardpoint":"graphics/weapons/covers/cover_hardpoint_hightech_small.png",
        "slotCoverMediumTurret":"graphics/weapons/covers/cover_turret_hightech_medium.png",
        "slotCoverMediumHardpoint":"graphics/weapons/covers/cover_hardpoint_hightech_medium.png",
        "slotCoverLargeTurret":"graphics/weapons/covers/cover_turret_hightech_large.png",
        "slotCoverLargeHardpoint":"graphics/weapons/covers/cover_hardpoint_hightech_large.png",

        "dHullOverlayLight":"graphics/damage/dmod_overlay_hightech_light.png",
        "dHullOverlayMedium":"graphics/damage/dmod_overlay_hightech_medium.png",
        "dHullOverlayHeavy":"graphics/damage/dmod_overlay_hightech_heavy.png",
    }
}
