name,id,tier,rarity,tech/manufacturer,tags,uiTags,base value,unlocked,hidden,hiddenEverywhere,cost_frigate,cost_dest,cost_cruiser,cost_capital,script,desc,short,sprite
Lattice Shield Matrix,tem_latticeshield,3,,Knights Templar,,,,,TRUE,,20,40,60,80,data.scripts.hullmods.TEM_LatticeShield,"An alien defense system that covers the entire hull of the ship, passively dissipating damage. Operates at %s efficiency at 0 flux, and degrades to %s efficiency at %s flux. Consumes %s flux per point of damage absorbed. The ship dissipates hard flux at a rate of %s.%s%s

The lattice is particularly adept at dissipating radiant energy, such as beam weapons and solar flares.",An esoteric always-on contour shield system.,graphics/templars/hullmods/tem_latticeshield.png
Excalibur Core,tem_excaliburdrive,3,,Knights Templar,,,,,TRUE,,15,30,45,60,data.scripts.hullmods.TEM_ExcaliburDrive,"Vast reactor output and alien design methodologies give this ship major advantages over Domain-level tech. Vent rate is increased by %s. EMP damage is %s, engine health is increased by %s, and the ship repairs some hull over time. The ship does not gain a 0-flux speed boost.

Weapon flux cost is reduced by %s, and if the ship has flight decks, advanced nano-fabricators reduce refitting time by %s, both depending on the percentage of Templar techology installed on the ship.%s

Sensors powered by this reactor are %s as powerful than usual. However, the massive sensor power %s the ship's sensor profile.%s%s

Due to the titanic energies involved in the Excalibur Drive Reactor, this ship has a tendency to critically detonate when disabled, destroying the ship utterly and inflicting major damage on nearby objects.","Increases vent rate, improves EMP resistance and engine health, and adds hull regeneration. Improves weapon efficiency but disables the 0-flux speed boost. Increases sensor range and profile. Speeds up fighter refits. Explodes violently when disabled.",graphics/templars/hullmods/tem_excaliburdrive.png
Faith Decks,tem_faithdecks,3,,Knights Templar,,,,,TRUE,,10,20,30,50,data.scripts.hullmods.TEM_FaithDecks,"A sophisticated neuro-interoperability network is installed in this ship, granting pilots a form of elevated awareness generally describable as a religious experience. Fighters can operate an additional %s units from the carrier.",Increases fighter range.,graphics/templars/hullmods/tem_faithdecks.png
HULLMOD CONFLICT,tem_blockedhullmod,,,,,,,,TRUE,,0,0,0,0,data.scripts.hullmods.TEM_BlockedBlankHullmod,%s: the hullmod you tried to install conflicts with this hull or another previously installed hullmod.,,graphics/icons/intel/investigation.png
