{
	"TEMPLARS":
	[
		"Redemption",
		"Virtue",
		"Chastity",
		"Temperance",
		"Charity",
		"Diligence",
		"Patience",
		"Kindness",
		"Humility",
		"Forbearance",
		"Hope",
		"Joy",
		"Faith",
		"Miracle",
		"Paradise",
		"Infinite",
		"Divine Will",
		"Revelation",
		"Crusade",
		"Jihad",
		"Sacrifice",
		"Zealot",
		"Herem",
		"Excommunication",
		"Wrath of God",
		"Divine Judgement",
		"Damnation",
		"Inferno",
		"Chastisement",
		"Purgatory",
		"Burnt Offering",
		"Torment",
		"Gehenna",
		"Armageddon",
		"Apocalypse",
		"Radok",
		"Boramander",
		"Zulif",
		"Arkon",
		"Aglovale",
		"Agravaine",
		"Arthur",
		"Aurelius",
		"Balin",
		"Bedevere",
		"Bors",
		"Bruin",
		"Cerdic",
		"Claudin",
		"Constantine",
		"Elyan",
		"Fisher",
		"Galahad",
		"Gareth",
		"Gawaine",
		"Geraint",
		"Gorlois",
		"Hector",
		"Joseph",
		"Kay",
		"Lancelot",
		"Lionel",
		"Lot",
		"Lucius",
		"Madoc",
		"Merlin",
		"Oberon",
		"Owain",
		"Percival",
		"Taliesin",
		"Tom",
		"Tor",
		"Tristan",
		"Urien",
		"Uther",
		"Avalon",
		"Anna",
		"Blanche",
		"Caelia",
		"Elaine",
		"Enide",
		"Evaine",
		"Guinevere",
		"Helaine",
		"Igraine",
		"Isolde",
		"Laudine",
		"Lynette",
		"Lyonesse",
		"Morgan",
		"Morgause",
		"Nimue",
		"Olwen",
		"Vivian"
	]
}